Verilog/Multiplier 4x4/Multiplier_4x4_tb.vcd
$date
	Sat Nov 12 05:26:54 2022
$end
$version
	Icarus Verilog
$end
$timescale
	10ps
$end
$scope module Multiplier_4x4_tb $end
$var wire 8 ! Product [7:0] $end
$var reg 4 " A [3:0] $end
$var reg 4 # B [3:0] $end
$var integer 32 $ i [31:0] $end
$scope module UUT $end
$var wire 4 % A [3:0] $end
$var wire 4 & B [3:0] $end
$var wire 1 ' w1 $end
$var wire 4 ( x4 [3:0] $end
$var wire 4 ) x3 [3:0] $end
$var wire 4 * x2 [3:0] $end
$var wire 4 + x1 [3:0] $end
$var wire 5 , s2 [4:0] $end
$var wire 5 - s1 [4:0] $end
$var wire 8 . Product [7:0] $end
$scope module inst11 $end
$var wire 4 / A [3:0] $end
$var wire 4 0 B [3:0] $end
$var wire 1 1 x3 $end
$var wire 1 2 x2 $end
$var wire 1 3 x1 $end
$var wire 4 4 Sum [3:0] $end
$var wire 1 5 Carry $end
$scope module inst1 $end
$var wire 1 6 A $end
$var wire 1 7 B $end
$var wire 1 3 Carry $end
$var wire 1 8 Sum $end
$upscope $end
$scope module inst2 $end
$var wire 1 9 A $end
$var wire 1 : B $end
$var wire 1 3 CI $end
$var wire 1 2 Carry $end
$var wire 1 ; x3 $end
$var wire 1 < x2 $end
$var wire 1 = x1 $end
$var wire 1 > Sum $end
$scope module inst1 $end
$var wire 1 9 A $end
$var wire 1 : B $end
$var wire 1 < Carry $end
$var wire 1 = Sum $end
$upscope $end
$scope module inst2 $end
$var wire 1 3 A $end
$var wire 1 = B $end
$var wire 1 ; Carry $end
$var wire 1 > Sum $end
$upscope $end
$upscope $end
$scope module inst3 $end
$var wire 1 ? A $end
$var wire 1 @ B $end
$var wire 1 2 CI $end
$var wire 1 1 Carry $end
$var wire 1 A x3 $end
$var wire 1 B x2 $end
$var wire 1 C x1 $end
$var wire 1 D Sum $end
$scope module inst1 $end
$var wire 1 ? A $end
$var wire 1 @ B $end
$var wire 1 B Carry $end
$var wire 1 C Sum $end
$upscope $end
$scope module inst2 $end
$var wire 1 2 A $end
$var wire 1 C B $end
$var wire 1 A Carry $end
$var wire 1 D Sum $end
$upscope $end
$upscope $end
$scope module inst4 $end
$var wire 1 E A $end
$var wire 1 F B $end
$var wire 1 1 CI $end
$var wire 1 5 Carry $end
$var wire 1 G x3 $end
$var wire 1 H x2 $end
$var wire 1 I x1 $end
$var wire 1 J Sum $end
$scope module inst1 $end
$var wire 1 E A $end
$var wire 1 F B $end
$var wire 1 H Carry $end
$var wire 1 I Sum $end
$upscope $end
$scope module inst2 $end
$var wire 1 1 A $end
$var wire 1 I B $end
$var wire 1 G Carry $end
$var wire 1 J Sum $end
$upscope $end
$upscope $end
$upscope $end
$scope module inst17 $end
$var wire 4 K A [3:0] $end
$var wire 4 L B [3:0] $end
$var wire 1 M x3 $end
$var wire 1 N x2 $end
$var wire 1 O x1 $end
$var wire 4 P Sum [3:0] $end
$var wire 1 Q Carry $end
$scope module inst1 $end
$var wire 1 R A $end
$var wire 1 S B $end
$var wire 1 O Carry $end
$var wire 1 T Sum $end
$upscope $end
$scope module inst2 $end
$var wire 1 U A $end
$var wire 1 V B $end
$var wire 1 O CI $end
$var wire 1 N Carry $end
$var wire 1 W x3 $end
$var wire 1 X x2 $end
$var wire 1 Y x1 $end
$var wire 1 Z Sum $end
$scope module inst1 $end
$var wire 1 U A $end
$var wire 1 V B $end
$var wire 1 X Carry $end
$var wire 1 Y Sum $end
$upscope $end
$scope module inst2 $end
$var wire 1 O A $end
$var wire 1 Y B $end
$var wire 1 W Carry $end
$var wire 1 Z Sum $end
$upscope $end
$upscope $end
$scope module inst3 $end
$var wire 1 [ A $end
$var wire 1 \ B $end
$var wire 1 N CI $end
$var wire 1 M Carry $end
$var wire 1 ] x3 $end
$var wire 1 ^ x2 $end
$var wire 1 _ x1 $end
$var wire 1 ` Sum $end
$scope module inst1 $end
$var wire 1 [ A $end
$var wire 1 \ B $end
$var wire 1 ^ Carry $end
$var wire 1 _ Sum $end
$upscope $end
$scope module inst2 $end
$var wire 1 N A $end
$var wire 1 _ B $end
$var wire 1 ] Carry $end
$var wire 1 ` Sum $end
$upscope $end
$upscope $end
$scope module inst4 $end
$var wire 1 a A $end
$var wire 1 b B $end
$var wire 1 M CI $end
$var wire 1 Q Carry $end
$var wire 1 c x3 $end
$var wire 1 d x2 $end
$var wire 1 e x1 $end
$var wire 1 f Sum $end
$scope module inst1 $end
$var wire 1 a A $end
$var wire 1 b B $end
$var wire 1 d Carry $end
$var wire 1 e Sum $end
$upscope $end
$scope module inst2 $end
$var wire 1 M A $end
$var wire 1 e B $end
$var wire 1 c Carry $end
$var wire 1 f Sum $end
$upscope $end
$upscope $end
$upscope $end
$scope module inst23 $end
$var wire 4 g A [3:0] $end
$var wire 4 h B [3:0] $end
$var wire 1 i x3 $end
$var wire 1 j x2 $end
$var wire 1 k x1 $end
$var wire 4 l Sum [3:0] $end
$var wire 1 m Carry $end
$scope module inst1 $end
$var wire 1 n A $end
$var wire 1 o B $end
$var wire 1 k Carry $end
$var wire 1 p Sum $end
$upscope $end
$scope module inst2 $end
$var wire 1 q A $end
$var wire 1 r B $end
$var wire 1 k CI $end
$var wire 1 j Carry $end
$var wire 1 s x3 $end
$var wire 1 t x2 $end
$var wire 1 u x1 $end
$var wire 1 v Sum $end
$scope module inst1 $end
$var wire 1 q A $end
$var wire 1 r B $end
$var wire 1 t Carry $end
$var wire 1 u Sum $end
$upscope $end
$scope module inst2 $end
$var wire 1 k A $end
$var wire 1 u B $end
$var wire 1 s Carry $end
$var wire 1 v Sum $end
$upscope $end
$upscope $end
$scope module inst3 $end
$var wire 1 w A $end
$var wire 1 x B $end
$var wire 1 j CI $end
$var wire 1 i Carry $end
$var wire 1 y x3 $end
$var wire 1 z x2 $end
$var wire 1 { x1 $end
$var wire 1 | Sum $end
$scope module inst1 $end
$var wire 1 w A $end
$var wire 1 x B $end
$var wire 1 z Carry $end
$var wire 1 { Sum $end
$upscope $end
$scope module inst2 $end
$var wire 1 j A $end
$var wire 1 { B $end
$var wire 1 y Carry $end
$var wire 1 | Sum $end
$upscope $end
$upscope $end
$scope module inst4 $end
$var wire 1 } A $end
$var wire 1 ~ B $end
$var wire 1 i CI $end
$var wire 1 m Carry $end
$var wire 1 !" x3 $end
$var wire 1 "" x2 $end
$var wire 1 #" x1 $end
$var wire 1 $" Sum $end
$scope module inst1 $end
$var wire 1 } A $end
$var wire 1 ~ B $end
$var wire 1 "" Carry $end
$var wire 1 #" Sum $end
$upscope $end
$scope module inst2 $end
$var wire 1 i A $end
$var wire 1 #" B $end
$var wire 1 !" Carry $end
$var wire 1 $" Sum $end
$upscope $end
$upscope $end
$upscope $end
$upscope $end
$upscope $end
$enddefinitions $end
#0
$dumpvars
0$"
0#"
0""
0!"
0~
0}
0|
0{
0z
0y
0x
0w
0v
0u
0t
0s
0r
0q
0p
0o
0n
0m
b0 l
0k
0j
0i
b0 h
b0 g
0f
0e
0d
0c
0b
0a
0`
0_
0^
0]
0\
0[
0Z
0Y
0X
0W
0V
0U
0T
0S
0R
0Q
b0 P
0O
0N
0M
b0 L
b0 K
0J
0I
0H
0G
0F
0E
0D
0C
0B
0A
0@
0?
0>
0=
0<
0;
0:
09
08
07
06
05
b0 4
03
02
01
b0 0
b0 /
b0 .
b0 -
b0 ,
b0 +
b0 *
b0 )
b0 (
1'
b0 &
b0 %
b0 $
b0 #
b0 "
b0 !
$end
#1000
b0 !
b0 .
b0 l
0v
0u
0q
b0 g
b0 ,
b0 P
0`
0_
0[
b0 K
b0 -
b0 4
0J
0I
0E
0'
b0 +
b0 /
b1 "
b1 %
b1 $
#2000
1'
b10 "
b10 %
b10 $
#3000
b0 !
b0 .
b0 l
0v
0u
0q
b0 g
b0 ,
b0 P
0`
0_
0[
b0 K
b0 -
b0 4
0J
0I
0E
0'
b0 +
b0 /
b11 "
b11 %
b11 $
#4000
1'
b100 "
b100 %
b100 $
#5000
b0 !
b0 .
b0 l
0v
0u
0q
b0 g
b0 ,
b0 P
0`
0_
0[
b0 K
b0 -
b0 4
0J
0I
0E
0'
b0 +
b0 /
b101 "
b101 %
b101 $
#6000
1'
b110 "
b110 %
b110 $
#7000
b0 !
b0 .
b0 l
0v
0u
0q
b0 g
b0 ,
b0 P
0`
0_
0[
b0 K
b0 -
b0 4
0J
0I
0E
0'
b0 +
b0 /
b111 "
b111 %
b111 $
#8000
1'
b1000 "
b1000 %
b1000 $
#9000
b0 !
b0 .
b0 l
0v
0u
0q
b0 g
b0 ,
b0 P
0`
0_
0[
b0 K
b0 -
b0 4
0J
0I
0E
0'
b0 +
b0 /
b1001 "
b1001 %
b1001 $
#10000
1'
b1010 "
b1010 %
b1010 $
#11000
b0 !
b0 .
b0 l
0v
0u
0q
b0 g
b0 ,
b0 P
0`
0_
0[
b0 K
b0 -
b0 4
0J
0I
0E
0'
b0 +
b0 /
b1011 "
b1011 %
b1011 $
#12000
1'
b1100 "
b1100 %
b1100 $
#13000
b0 !
b0 .
b0 l
0v
0u
0q
b0 g
b0 ,
b0 P
0`
0_
0[
b0 K
b0 -
b0 4
0J
0I
0E
0'
b0 +
b0 /
b1101 "
b1101 %
b1101 $
#14000
1'
b1110 "
b1110 %
b1110 $
#15000
b0 !
b0 .
b0 l
0v
0u
0q
b0 g
b0 ,
b0 P
0`
0_
0[
b0 K
b0 -
b0 4
0J
0I
0E
0'
b0 +
b0 /
b1111 "
b1111 %
b1111 $
#16000
1'
b1 #
b1 &
b0 "
b0 %
b10000 $
#17000
b0 l
0v
0u
0q
b0 g
b0 ,
b0 P
0`
0_
0[
b0 K
b0 -
b0 4
0J
0I
0E
b1 !
b1 .
0'
b0 +
b0 /
b1 "
b1 %
b10001 $
#18000
b1 -
b1 4
18
17
b10 !
b10 .
1'
b1 *
b1 0
b10 "
b10 %
b10010 $
#19000
b0 l
0v
0u
0q
b0 g
b0 ,
b0 P
0`
0_
0[
b0 K
b1 -
b1 4
0J
0I
0E
b11 !
b11 .
0'
b0 +
b0 /
b11 "
b11 %
b10011 $
#20000
b0 -
b0 4
08
b1 ,
b1 P
1T
07
1S
b100 !
b100 .
1'
b0 *
b0 0
b1 )
b1 L
b100 "
b100 %
b10100 $
#21000
b0 l
0v
0u
0q
b0 g
b1 ,
b1 P
0`
0_
0[
b0 K
b0 -
b0 4
0J
0I
0E
b101 !
b101 .
0'
b0 +
b0 /
b101 "
b101 %
b10101 $
#22000
b1 -
b1 4
18
17
b110 !
b110 .
1'
b1 *
b1 0
b110 "
b110 %
b10110 $
#23000
b0 l
0v
0u
0q
b0 g
b1 ,
b1 P
0`
0_
0[
b0 K
b1 -
b1 4
0J
0I
0E
b111 !
b111 .
0'
b0 +
b0 /
b111 "
b111 %
b10111 $
#24000
b0 -
b0 4
08
b0 ,
b0 P
0T
b1 l
1p
07
0S
1o
b1000 !
b1000 .
1'
b0 *
b0 0
b0 )
b0 L
b1 (
b1 h
b1000 "
b1000 %
b11000 $
#25000
b1 l
0v
0u
0q
b0 g
b0 ,
b0 P
0`
0_
0[
b0 K
b0 -
b0 4
0J
0I
0E
b1001 !
b1001 .
0'
b0 +
b0 /
b1001 "
b1001 %
b11001 $
#26000
b1 -
b1 4
18
17
b1010 !
b1010 .
1'
b1 *
b1 0
b1010 "
b1010 %
b11010 $
#27000
b1 l
0v
0u
0q
b0 g
b0 ,
b0 P
0`
0_
0[
b0 K
b1 -
b1 4
0J
0I
0E
b1011 !
b1011 .
0'
b0 +
b0 /
b1011 "
b1011 %
b11011 $
#28000
b0 -
b0 4
08
b1 ,
b1 P
1T
07
1S
b1100 !
b1100 .
1'
b0 *
b0 0
b1 )
b1 L
b1100 "
b1100 %
b11100 $
#29000
b1 l
0v
0u
0q
b0 g
b1 ,
b1 P
0`
0_
0[
b0 K
b0 -
b0 4
0J
0I
0E
b1101 !
b1101 .
0'
b0 +
b0 /
b1101 "
b1101 %
b11101 $
#30000
b1 -
b1 4
18
17
b1110 !
b1110 .
1'
b1 *
b1 0
b1110 "
b1110 %
b11110 $
#31000
b1 l
0v
0u
0q
b0 g
b1 ,
b1 P
0`
0_
0[
b0 K
b1 -
b1 4
0J
0I
0E
b1111 !
b1111 .
0'
b0 +
b0 /
b1111 "
b1111 %
b11111 $
#32000
b0 -
b0 4
08
b0 ,
b0 P
0T
b0 l
0p
07
0S
0o
b0 !
b0 .
1'
b0 *
b0 0
b0 )
b0 L
b0 (
b0 h
b10 #
b10 &
b0 "
b0 %
b100000 $
#33000
b0 l
0v
0u
0q
b0 g
b0 ,
b0 P
0`
0_
0[
b10 !
b10 .
b0 K
0J
b1 -
b1 4
18
0I
16
0E
0'
b1 +
b1 /
b1 "
b1 %
b100001 $
#34000
b1 ,
b1 P
1T
1R
b100 !
b100 .
b1 K
1>
b10 -
b10 4
08
1=
06
1:
b0 +
b0 /
1'
b10 *
b10 0
b10 "
b10 %
b100010 $
#35000
b0 l
0v
0u
0q
b0 g
b1 ,
b1 P
0`
0_
0[
b110 !
b110 .
b1 K
0J
b11 -
b11 4
18
0I
16
0E
0'
b1 +
b1 /
b11 "
b11 %
b100011 $
#36000
0T
b1 l
1p
0R
1n
b1000 !
b1000 .
b0 K
b1 g
0>
b10 ,
b10 P
1Z
b0 -
b0 4
08
0=
1Y
06
0:
1V
b0 +
b0 /
1'
b0 *
b0 0
b10 )
b10 L
b100 "
b100 %
b100100 $
#37000
b1 l
0v
0u
0q
b1 g
b10 ,
b10 P
0`
0_
0[
b1010 !
b1010 .
b0 K
0J
b1 -
b1 4
18
0I
16
0E
0'
b1 +
b1 /
b101 "
b101 %
b100101 $
#38000
b11 ,
b11 P
1T
1R
b1100 !
b1100 .
b1 K
1>
b10 -
b10 4
08
1=
06
1:
b0 +
b0 /
1'
b10 *
b10 0
b110 "
b110 %
b100110 $
#39000
b1 l
0v
0u
0q
b1 g
b11 ,
b11 P
0`
0_
0[
b1110 !
b1110 .
b1 K
0J
b11 -
b11 4
18
0I
16
0E
0'
b1 +
b1 /
b111 "
b111 %
b100111 $
#40000
0T
0p
0R
0n
b0 K
b0 g
0>
b0 ,
b0 P
0Z
b10000 !
b10000 .
b10 l
1v
b0 -
b0 4
08
0=
0Y
1u
06
0:
0V
1r
b0 +
b0 /
1'
b0 *
b0 0
b0 )
b0 L
b10 (
b10 h
b1000 "
b1000 %
b101000 $
#41000
0|
b10 l
1v
0j
1u
0t
0q
b0 g
b0 ,
b0 P
0`
0_
0[
b10010 !
b10010 .
b0 K
0J
b1 -
b1 4
18
0I
16
0E
0'
b1 +
b1 /
b1001 "
b1001 %
b101001 $
#42000
b1 ,
b1 P
1T
1R
b10100 !
b10100 .
b1 K
1>
b10 -
b10 4
08
1=
06
1:
b0 +
b0 /
1'
b10 *
b10 0
b1010 "
b1010 %
b101010 $
#43000
0|
b10 l
1v
0j
1u
0t
0q
b0 g
b1 ,
b1 P
0`
0_
0[
b10110 !
b10110 .
b1 K
0J
b11 -
b11 4
18
0I
16
0E
0'
b1 +
b1 /
b1011 "
b1011 %
b101011 $
#44000
0T
b11 l
1p
0R
1n
b11000 !
b11000 .
b0 K
b1 g
0>
b10 ,
b10 P
1Z
b0 -
b0 4
08
0=
1Y
06
0:
1V
b0 +
b0 /
1'
b0 *
b0 0
b10 )
b10 L
b1100 "
b1100 %
b101100 $
#45000
0|
b11 l
1v
0j
1u
0t
0q
b1 g
b10 ,
b10 P
0`
0_
0[
b11010 !
b11010 .
b0 K
0J
b1 -
b1 4
18
0I
16
0E
0'
b1 +
b1 /
b1101 "
b1101 %
b101101 $
#46000
b11 ,
b11 P
1T
1R
b11100 !
b11100 .
b1 K
1>
b10 -
b10 4
08
1=
06
1:
b0 +
b0 /
1'
b10 *
b10 0
b1110 "
b1110 %
b101110 $
#47000
0|
b11 l
1v
0j
1u
0t
0q
b1 g
b11 ,
b11 P
0`
0_
0[
b11110 !
b11110 .
b1 K
0J
b11 -
b11 4
18
0I
16
0E
0'
b1 +
b1 /
b1111 "
b1111 %
b101111 $
#48000
0T
0p
0R
0n
b0 K
b0 g
0>
b0 ,
b0 P
0Z
b0 !
b0 .
b0 l
0v
b0 -
b0 4
08
0=
0Y
0u
06
0:
0V
0r
b0 +
b0 /
1'
b0 *
b0 0
b0 )
b0 L
b0 (
b0 h
b11 #
b11 &
b0 "
b0 %
b110000 $
#49000
b0 l
0v
0u
0q
b0 g
b0 ,
b0 P
0`
0_
0[
b0 K
0J
b1 -
b1 4
18
0I
16
0E
b11 !
b11 .
0'
b1 +
b1 /
b1 "
b1 %
b110001 $
#50000
b1 ,
b1 P
1T
1R
b1 K
b11 -
b11 4
1>
1=
06
17
1:
b110 !
b110 .
b0 +
b0 /
1'
b11 *
b11 0
b10 "
b10 %
b110010 $
#51000
1p
1n
b1 l
0v
0u
1Z
0q
1Y
b1 g
1U
0`
b10 ,
b10 P
0T
0_
1D
0R
0[
12
b10 K
0>
1;
0J
b100 -
b100 4
08
13
0I
16
0E
b1001 !
b1001 .
0'
b1 +
b1 /
b11 "
b11 %
b110011 $
#52000
0U
0v
b0 K
b1 l
1p
0u
b0 -
b0 4
0D
1n
0q
02
b1 g
0`
0;
1Z
0N
03
0=
b11 ,
b11 P
1T
1Y
0X
06
07
0:
1S
1V
b1100 !
b1100 .
b0 +
b0 /
1'
b0 *
b0 0
b11 )
b11 L
b100 "
b100 %
b110100 $
#53000
b1 l
0v
0u
0q
b1 g
b11 ,
b11 P
0`
0_
0[
b0 K
0J
b1 -
b1 4
18
0I
16
0E
b1111 !
b1111 .
0'
b1 +
b1 /
b101 "
b101 %
b110101 $
#54000
1v
1u
1q
b10 l
0p
0n
1`
b10 g
1N
0Z
1W
b100 ,
b100 P
0T
1O
1R
b1 K
b11 -
b11 4
1>
1=
06
17
1:
b10010 !
b10010 .
b0 +
b0 /
1'
b11 *
b11 0
b110 "
b110 %
b110110 $
#55000
0|
0{
1v
0w
b10 l
0p
1u
0n
1q
0f
0Y
1X
1N
b10 g
0M
1U
0Z
0W
1`
0]
b101 ,
b101 P
1T
0O
0_
1D
0R
0[
12
b10 K
0>
1;
0J
b100 -
b100 4
08
13
0I
16
0E
b10101 !
b10101 .
0'
b1 +
b1 /
b111 "
b111 %
b110111 $
#56000
0U
0s
b0 K
0k
b0 -
b0 4
0D
0n
0q
02
b0 g
0`
0|
0;
0Z
0N
1v
0j
03
0=
b0 ,
b0 P
0T
0Y
0X
b11 l
1p
1u
0t
06
07
0:
0S
0V
1o
1r
b11000 !
b11000 .
b0 +
b0 /
1'
b0 *
b0 0
b0 )
b0 L
b11 (
b11 h
b1000 "
b1000 %
b111000 $
#57000
0|
b11 l
1v
0j
1u
0t
0q
b0 g
b0 ,
b0 P
0`
0_
0[
b0 K
0J
b1 -
b1 4
18
0I
16
0E
b11011 !
b11011 .
0'
b1 +
b1 /
b1001 "
b1001 %
b111001 $
#58000
b1 ,
b1 P
1T
1R
b1 K
b11 -
b11 4
1>
1=
06
17
1:
b11110 !
b11110 .
b0 +
b0 /
1'
b11 *
b11 0
b1010 "
b1010 %
b111010 $
#59000
1s
0p
1k
1|
1n
b100 l
0v
1j
1u
0t
1Z
0q
1Y
b1 g
1U
0`
b10 ,
b10 P
0T
0_
1D
0R
0[
12
b10 K
0>
1;
0J
b100 -
b100 4
08
13
0I
16
0E
b100001 !
b100001 .
0'
b1 +
b1 /
b1011 "
b1011 %
b111011 $
#60000
1|
1j
0U
1s
b0 K
b100 l
0p
1k
1u
0t
b0 -
b0 4
0D
1n
0q
02
b1 g
0`
0;
1Z
0N
03
0=
b11 ,
b11 P
1T
1Y
0X
06
07
0:
1S
1V
b100100 !
b100100 .
b0 +
b0 /
1'
b0 *
b0 0
b11 )
b11 L
b1100 "
b1100 %
b111100 $
#61000
1|
1j
b100 l
0v
1s
1u
0t
0q
b1 g
b11 ,
b11 P
0`
0_
0[
b0 K
0J
b1 -
b1 4
18
0I
16
0E
b100111 !
b100111 .
0'
b1 +
b1 /
b1101 "
b1101 %
b111101 $
#62000
0u
1t
0v
0s
1q
b101 l
1p
0k
0n
1`
b10 g
1N
0Z
1W
b100 ,
b100 P
0T
1O
1R
b1 K
b11 -
b11 4
1>
1=
06
17
1:
b101010 !
b101010 .
b0 +
b0 /
1'
b11 *
b11 0
b1110 "
b1110 %
b111110 $
#63000
0$"
0i
1|
0y
0v
0{
0s
1j
0w
b101 l
1p
0k
0u
1t
0n
1q
0f
0Y
1X
1N
b10 g
0M
1U
0Z
0W
1`
0]
b101 ,
b101 P
1T
0O
0_
1D
0R
0[
12
b10 K
0>
1;
0J
b100 -
b100 4
08
13
0I
16
0E
b101101 !
b101101 .
0'
b1 +
b1 /
b1111 "
b1111 %
b111111 $
#64000
0U
b0 K
b0 -
b0 4
0D
0n
0q
02
b0 g
0`
0|
0;
0Z
0N
0v
0j
03
0=
b0 ,
b0 P
0T
0Y
0X
b0 l
0p
0u
0t
06
07
0:
0S
0V
0o
0r
b0 !
b0 .
b0 +
b0 /
1'
b0 *
b0 0
b0 )
b0 L
b0 (
b0 h
b100 #
b100 &
b0 "
b0 %
b1000000 $
#65000
b0 l
0v
0u
0q
b100 !
b100 .
b0 g
0`
b1 ,
b1 P
1T
0_
1R
0[
b1 K
1>
b10 -
b10 4
0J
1=
0I
19
0E
0'
b10 +
b10 /
b1 "
b1 %
b1000001 $
#66000
b0 !
b0 .
b0 ,
b0 P
0T
0R
b0 K
b0 -
b0 4
0>
0=
09
b0 +
b0 /
1'
b10 "
b10 %
b1000010 $
#67000
b0 l
0v
0u
0q
b100 !
b100 .
b0 g
0`
b1 ,
b1 P
1T
0_
1R
0[
b1 K
1>
b10 -
b10 4
0J
1=
0I
19
0E
0'
b10 +
b10 /
b11 "
b11 %
b1000011 $
#68000
b0 !
b0 .
b0 ,
b0 P
0T
0R
b0 K
b0 -
b0 4
0>
0=
09
b0 +
b0 /
1'
b100 "
b100 %
b1000100 $
#69000
b0 l
0v
0u
0q
b100 !
b100 .
b0 g
0`
b1 ,
b1 P
1T
0_
1R
0[
b1 K
1>
b10 -
b10 4
0J
1=
0I
19
0E
0'
b10 +
b10 /
b101 "
b101 %
b1000101 $
#70000
b0 !
b0 .
b0 ,
b0 P
0T
0R
b0 K
b0 -
b0 4
0>
0=
09
b0 +
b0 /
1'
b110 "
b110 %
b1000110 $
#71000
b0 l
0v
0u
0q
b100 !
b100 .
b0 g
0`
b1 ,
b1 P
1T
0_
1R
0[
b1 K
1>
b10 -
b10 4
0J
1=
0I
19
0E
0'
b10 +
b10 /
b111 "
b111 %
b1000111 $
#72000
b0 !
b0 .
b0 ,
b0 P
0T
0R
b0 K
b0 -
b0 4
0>
0=
09
b0 +
b0 /
1'
b1000 "
b1000 %
b1001000 $
#73000
b0 l
0v
0u
0q
b100 !
b100 .
b0 g
0`
b1 ,
b1 P
1T
0_
1R
0[
b1 K
1>
b10 -
b10 4
0J
1=
0I
19
0E
0'
b10 +
b10 /
b1001 "
b1001 %
b1001001 $
#74000
b0 !
b0 .
b0 ,
b0 P
0T
0R
b0 K
b0 -
b0 4
0>
0=
09
b0 +
b0 /
1'
b1010 "
b1010 %
b1001010 $
#75000
b0 l
0v
0u
0q
b100 !
b100 .
b0 g
0`
b1 ,
b1 P
1T
0_
1R
0[
b1 K
1>
b10 -
b10 4
0J
1=
0I
19
0E
0'
b10 +
b10 /
b1011 "
b1011 %
b1001011 $
#76000
b0 !
b0 .
b0 ,
b0 P
0T
0R
b0 K
b0 -
b0 4
0>
0=
09
b0 +
b0 /
1'
b1100 "
b1100 %
b1001100 $
#77000
b0 l
0v
0u
0q
b100 !
b100 .
b0 g
0`
b1 ,
b1 P
1T
0_
1R
0[
b1 K
1>
b10 -
b10 4
0J
1=
0I
19
0E
0'
b10 +
b10 /
b1101 "
b1101 %
b1001101 $
#78000
b0 !
b0 .
b0 ,
b0 P
0T
0R
b0 K
b0 -
b0 4
0>
0=
09
b0 +
b0 /
1'
b1110 "
b1110 %
b1001110 $
#79000
b0 l
0v
0u
0q
b100 !
b100 .
b0 g
0`
b1 ,
b1 P
1T
0_
1R
0[
b1 K
1>
b10 -
b10 4
0J
1=
0I
19
0E
0'
b10 +
b10 /
b1111 "
b1111 %
b1001111 $
#80000
b0 !
b0 .
b0 ,
b0 P
0T
0R
b0 K
b0 -
b0 4
0>
0=
09
b0 +
b0 /
1'
b101 #
b101 &
b0 "
b0 %
b1010000 $
#81000
b0 l
0v
0u
0q
b0 g
0`
b1 ,
b1 P
1T
0_
1R
0[
b1 K
1>
b10 -
b10 4
0J
1=
0I
19
0E
b101 !
b101 .
0'
b10 +
b10 /
b1 "
b1 %
b1010001 $
#82000
b0 ,
b0 P
0T
0R
b0 K
0>
0=
b1 -
b1 4
18
09
17
b10 !
b10 .
b0 +
b0 /
1'
b1 *
b1 0
b10 "
b10 %
b1010010 $
#83000
b0 l
0v
0u
0q
b0 g
0`
b1 ,
b1 P
1T
0_
1R
0[
b1 K
1>
b11 -
b11 4
0J
1=
0I
19
0E
b111 !
b111 .
0'
b10 +
b10 /
b11 "
b11 %
b1010011 $
#84000
b0 l
0p
0R
0n
b0 K
b0 g
0>
0Z
0=
b0 -
b0 4
08
b1 ,
b1 P
1T
0O
09
07
1S
b100 !
b100 .
b0 +
b0 /
1'
b0 *
b0 0
b1 )
b1 L
b100 "
b100 %
b1010100 $
#85000
0v
b1 l
1p
0u
1n
0q
b1 g
1Z
0`
b10 ,
b10 P
0T
1O
0_
1R
0[
b1 K
1>
b10 -
b10 4
0J
1=
0I
19
0E
b1001 !
b1001 .
0'
b10 +
b10 /
b101 "
b101 %
b1010101 $
#86000
b0 l
0p
0n
b0 g
0Z
b1 ,
b1 P
1T
0O
0R
b0 K
0>
0=
b1 -
b1 4
18
09
17
b110 !
b110 .
b0 +
b0 /
1'
b1 *
b1 0
b110 "
b110 %
b1010110 $
#87000
0v
b1 l
1p
0u
1n
0q
b1 g
1Z
0`
b10 ,
b10 P
0T
1O
0_
1R
0[
b1 K
1>
b11 -
b11 4
0J
1=
0I
19
0E
b1011 !
b1011 .
0'
b10 +
b10 /
b111 "
b111 %
b1010111 $
#88000
0R
0n
b0 K
b0 g
0>
0Z
0v
0=
b0 -
b0 4
08
b0 ,
b0 P
0T
0O
b1 l
1p
0k
09
07
0S
1o
b1000 !
b1000 .
b0 +
b0 /
1'
b0 *
b0 0
b0 )
b0 L
b1 (
b1 h
b1000 "
b1000 %
b1011000 $
#89000
b1 l
0v
0u
0q
b0 g
0`
b1 ,
b1 P
1T
0_
1R
0[
b1 K
1>
b10 -
b10 4
0J
1=
0I
19
0E
b1101 !
b1101 .
0'
b10 +
b10 /
b1001 "
b1001 %
b1011001 $
#90000
b0 ,
b0 P
0T
0R
b0 K
0>
0=
b1 -
b1 4
18
09
17
b1010 !
b1010 .
b0 +
b0 /
1'
b1 *
b1 0
b1010 "
b1010 %
b1011010 $
#91000
b1 l
0v
0u
0q
b0 g
0`
b1 ,
b1 P
1T
0_
1R
0[
b1 K
1>
b11 -
b11 4
0J
1=
0I
19
0E
b1111 !
b1111 .
0'
b10 +
b10 /
b1011 "
b1011 %
b1011011 $
#92000
0v
b1 l
1p
0k
0R
0n
b0 K
b0 g
0>
0Z
0=
b0 -
b0 4
08
b1 ,
b1 P
1T
0O
09
07
1S
b1100 !
b1100 .
b0 +
b0 /
1'
b0 *
b0 0
b1 )
b1 L
b1100 "
b1100 %
b1011100 $
#93000
0|
1v
0j
0s
b10 l
0p
1k
0u
1n
0q
b1 g
1Z
0`
b10 ,
b10 P
0T
1O
0_
1R
0[
b1 K
1>
b10 -
b10 4
0J
1=
0I
19
0E
b10001 !
b10001 .
0'
b10 +
b10 /
b1101 "
b1101 %
b1011101 $
#94000
0v
b1 l
1p
0k
0n
b0 g
0Z
b1 ,
b1 P
1T
0O
0R
b0 K
0>
0=
b1 -
b1 4
18
09
17
b1110 !
b1110 .
b0 +
b0 /
1'
b1 *
b1 0
b1110 "
b1110 %
b1011110 $
#95000
0|
1v
0j
0s
b10 l
0p
1k
0u
1n
0q
b1 g
1Z
0`
b10 ,
b10 P
0T
1O
0_
1R
0[
b1 K
1>
b11 -
b11 4
0J
1=
0I
19
0E
b10011 !
b10011 .
0'
b10 +
b10 /
b1111 "
b1111 %
b1011111 $
#96000
0R
0n
b0 K
b0 g
0>
0Z
0v
0=
b0 -
b0 4
08
b0 ,
b0 P
0T
0O
b0 l
0p
0k
09
07
0S
0o
b0 !
b0 .
b0 +
b0 /
1'
b0 *
b0 0
b0 )
b0 L
b0 (
b0 h
b110 #
b110 &
b0 "
b0 %
b1100000 $
#97000
b0 l
0v
0u
0q
b0 g
0`
b1 ,
b1 P
1T
0_
1R
0[
b110 !
b110 .
b1 K
1>
0J
b11 -
b11 4
18
1=
0I
16
19
0E
0'
b11 +
b11 /
b1 "
b1 %
b1100001 $
#98000
b100 !
b100 .
b10 -
b10 4
08
06
09
1:
b0 +
b0 /
1'
b10 *
b10 0
b10 "
b10 %
b1100010 $
#99000
1p
b1 l
0v
1n
0u
0q
1Z
b1 g
1Y
0`
1U
b10 ,
b10 P
0T
0_
0R
0[
b1010 !
b1010 .
1D
b10 K
0>
12
0J
b101 -
b101 4
18
0=
1<
0I
16
19
0E
0'
b11 +
b11 /
b11 "
b11 %
b1100011 $
#100000
0v
0U
b1 l
1p
0u
b0 K
1n
0q
b1000 !
b1000 .
0D
b1 g
0`
02
b10 ,
b10 P
1Z
0N
b0 -
b0 4
08
0<
1Y
0X
06
09
0:
1V
b0 +
b0 /
1'
b0 *
b0 0
b10 )
b10 L
b100 "
b100 %
b1100100 $
