Verilog/Adder 4 Bit/Adder_4_tb.vcd
$date
	Sat Nov 12 05:07:20 2022
$end
$version
	Icarus Verilog
$end
$timescale
	10ps
$end
$scope module Adder_4_tb $end
$var wire 4 ! Sum [3:0] $end
$var wire 1 " Carry $end
$var reg 4 # A [3:0] $end
$var reg 4 $ B [3:0] $end
$var integer 32 % i [31:0] $end
$scope module UUT $end
$var wire 4 & A [3:0] $end
$var wire 4 ' B [3:0] $end
$var wire 1 ( x3 $end
$var wire 1 ) x2 $end
$var wire 1 * x1 $end
$var wire 4 + Sum [3:0] $end
$var wire 1 " Carry $end
$scope module inst1 $end
$var wire 1 , A $end
$var wire 1 - B $end
$var wire 1 * Carry $end
$var wire 1 . Sum $end
$upscope $end
$scope module inst2 $end
$var wire 1 / A $end
$var wire 1 0 B $end
$var wire 1 * CI $end
$var wire 1 ) Carry $end
$var wire 1 1 x3 $end
$var wire 1 2 x2 $end
$var wire 1 3 x1 $end
$var wire 1 4 Sum $end
$scope module inst1 $end
$var wire 1 / A $end
$var wire 1 0 B $end
$var wire 1 2 Carry $end
$var wire 1 3 Sum $end
$upscope $end
$scope module inst2 $end
$var wire 1 * A $end
$var wire 1 3 B $end
$var wire 1 1 Carry $end
$var wire 1 4 Sum $end
$upscope $end
$upscope $end
$scope module inst3 $end
$var wire 1 5 A $end
$var wire 1 6 B $end
$var wire 1 ) CI $end
$var wire 1 ( Carry $end
$var wire 1 7 x3 $end
$var wire 1 8 x2 $end
$var wire 1 9 x1 $end
$var wire 1 : Sum $end
$scope module inst1 $end
$var wire 1 5 A $end
$var wire 1 6 B $end
$var wire 1 8 Carry $end
$var wire 1 9 Sum $end
$upscope $end
$scope module inst2 $end
$var wire 1 ) A $end
$var wire 1 9 B $end
$var wire 1 7 Carry $end
$var wire 1 : Sum $end
$upscope $end
$upscope $end
$scope module inst4 $end
$var wire 1 ; A $end
$var wire 1 < B $end
$var wire 1 ( CI $end
$var wire 1 " Carry $end
$var wire 1 = x3 $end
$var wire 1 > x2 $end
$var wire 1 ? x1 $end
$var wire 1 @ Sum $end
$scope module inst1 $end
$var wire 1 ; A $end
$var wire 1 < B $end
$var wire 1 > Carry $end
$var wire 1 ? Sum $end
$upscope $end
$scope module inst2 $end
$var wire 1 ( A $end
$var wire 1 ? B $end
$var wire 1 = Carry $end
$var wire 1 @ Sum $end
$upscope $end
$upscope $end
$upscope $end
$upscope $end
$enddefinitions $end
#0
$dumpvars
0@
0?
0>
0=
0<
0;
0:
09
08
07
06
05
04
03
02
01
00
0/
0.
0-
0,
b0 +
0*
0)
0(
b0 '
b0 &
b0 %
b0 $
b0 #
0"
b0 !
$end
#1000
b1 !
b1 +
1.
1,
b1 #
b1 &
b1 %
#2000
14
b10 !
b10 +
0.
13
0,
1/
b10 #
b10 &
b10 %
#3000
b11 !
b11 +
1.
1,
b11 #
b11 &
b11 %
#4000
04
1:
b100 !
b100 +
0.
03
19
0,
0/
15
b100 #
b100 &
b100 %
#5000
b101 !
b101 +
1.
1,
b101 #
b101 &
b101 %
#6000
14
b110 !
b110 +
0.
13
0,
1/
b110 #
b110 &
b110 %
#7000
b111 !
b111 +
1.
1,
b111 #
b111 &
b111 %
#8000
04
0:
1@
b1000 !
b1000 +
0.
03
09
1?
0,
0/
05
1;
b1000 #
b1000 &
b1000 %
#9000
b1001 !
b1001 +
1.
1,
b1001 #
b1001 &
b1001 %
#10000
14
b1010 !
b1010 +
0.
13
0,
1/
b1010 #
b1010 &
b1010 %
#11000
b1011 !
b1011 +
1.
1,
b1011 #
b1011 &
b1011 %
#12000
04
1:
b1100 !
b1100 +
0.
03
19
0,
0/
15
b1100 #
b1100 &
b1100 %
#13000
b1101 !
b1101 +
1.
1,
b1101 #
b1101 &
b1101 %
#14000
14
b1110 !
b1110 +
0.
13
0,
1/
b1110 #
b1110 &
b1110 %
#15000
b1111 !
b1111 +
1.
1,
b1111 #
b1111 &
b1111 %
#16000
04
0:
b1 !
b1 +
0@
03
09
0?
1-
0,
0/
05
0;
b1 $
b1 '
b0 #
b0 &
b10000 %
#17000
14
b10 !
b10 +
0.
1*
1,
b1 #
b1 &
b10001 %
#18000
b11 !
b11 +
1.
0*
13
0,
1/
b10 #
b10 &
b10010 %
#19000
1:
1)
04
11
b100 !
b100 +
0.
1*
1,
b11 #
b11 &
b10011 %
#20000
0@
0)
0(
01
1:
07
b101 !
b101 +
1.
0*
03
19
0,
0/
15
b100 #
b100 &
b10100 %
#21000
14
b110 !
b110 +
0.
1*
1,
b101 #
b101 &
b10101 %
#22000
b111 !
b111 +
1.
0*
13
0,
1/
b110 #
b110 &
b10110 %
#23000
1@
1(
0:
17
1)
04
11
b1000 !
b1000 +
0.
1*
1,
b111 #
b111 &
b10111 %
#24000
0)
0(
0"
01
0:
07
1@
0=
b1001 !
b1001 +
1.
0*
03
09
1?
0,
0/
05
1;
b1000 #
b1000 &
b11000 %
#25000
14
b1010 !
b1010 +
0.
1*
1,
b1001 #
b1001 &
b11001 %
#26000
b1011 !
b1011 +
1.
0*
13
0,
1/
b1010 #
b1010 &
b11010 %
#27000
1:
1)
04
11
b1100 !
b1100 +
0.
1*
1,
b1011 #
b1011 &
b11011 %
#28000
0"
1@
0=
0)
0(
01
1:
07
b1101 !
b1101 +
1.
0*
03
19
0,
0/
15
b1100 #
b1100 &
b11100 %
#29000
14
b1110 !
b1110 +
0.
1*
1,
b1101 #
b1101 &
b11101 %
#30000
b1111 !
b1111 +
1.
0*
13
0,
1/
b1110 #
b1110 &
b11110 %
#31000
1"
0@
1=
1(
0:
17
1)
04
11
b0 !
b0 +
0.
1*
1,
b1111 #
b1111 &
b11111 %
#32000
0)
0(
0"
14
01
0:
07
b10 !
b10 +
0@
0=
0*
09
0?
0-
10
0,
0/
05
0;
b10 $
b10 '
b0 #
b0 &
b100000 %
#33000
b11 !
b11 +
1.
1,
b1 #
b1 &
b100001 %
#34000
1:
04
1)
b100 !
b100 +
0.
03
12
0,
1/
b10 #
b10 &
b100010 %
#35000
b101 !
b101 +
1.
1,
b11 #
b11 &
b100011 %
#36000
0@
0(
14
0)
1:
07
b110 !
b110 +
0.
13
02
19
0,
0/
15
b100 #
b100 &
b100100 %
#37000
b111 !
b111 +
1.
1,
b101 #
b101 &
b100101 %
#38000
1@
1(
0:
17
04
1)
b1000 !
b1000 +
0.
03
12
0,
1/
b110 #
b110 &
b100110 %
#39000
b1001 !
b1001 +
1.
1,
b111 #
b111 &
b100111 %
#40000
0(
0"
14
0)
0:
07
1@
0=
b1010 !
b1010 +
0.
13
02
09
1?
0,
0/
05
1;
b1000 #
b1000 &
b101000 %
#41000
b1011 !
b1011 +
1.
1,
b1001 #
b1001 &
b101001 %
#42000
1:
04
1)
b1100 !
b1100 +
0.
03
12
0,
1/
b1010 #
b1010 &
b101010 %
#43000
b1101 !
b1101 +
1.
1,
b1011 #
b1011 &
b101011 %
#44000
0"
1@
0=
0(
14
0)
1:
07
b1110 !
b1110 +
0.
13
02
19
0,
0/
15
b1100 #
b1100 &
b101100 %
#45000
b1111 !
b1111 +
1.
1,
b1101 #
b1101 &
b101101 %
#46000
1"
0@
1=
1(
0:
17
04
1)
b0 !
b0 +
0.
03
12
0,
1/
b1110 #
b1110 &
b101110 %
#47000
b1 !
b1 +
1.
1,
b1111 #
b1111 &
b101111 %
#48000
0(
0"
14
0)
0:
07
b11 !
b11 +
0@
0=
13
02
09
0?
1-
0,
0/
05
0;
b11 $
b11 '
b0 #
b0 &
b110000 %
#49000
1:
1)
04
11
b100 !
b100 +
0.
1*
1,
b1 #
b1 &
b110001 %
#50000
01
b101 !
b101 +
1.
0*
03
12
0,
1/
b10 #
b10 &
b110010 %
#51000
14
b110 !
b110 +
0.
1*
1,
b11 #
b11 &
b110011 %
#52000
0@
0(
0)
1:
07
b111 !
b111 +
1.
0*
13
02
19
0,
0/
15
b100 #
b100 &
b110100 %
#53000
1@
1(
0:
17
1)
04
11
b1000 !
b1000 +
0.
1*
1,
b101 #
b101 &
b110101 %
#54000
01
b1001 !
b1001 +
1.
0*
03
12
0,
1/
b110 #
b110 &
b110110 %
#55000
14
b1010 !
b1010 +
0.
1*
1,
b111 #
b111 &
b110111 %
#56000
0(
0"
0)
0:
07
1@
0=
b1011 !
b1011 +
1.
0*
13
02
09
1?
0,
0/
05
1;
b1000 #
b1000 &
b111000 %
#57000
1:
1)
04
11
b1100 !
b1100 +
0.
1*
1,
b1001 #
b1001 &
b111001 %
#58000
01
b1101 !
b1101 +
1.
0*
03
12
0,
1/
b1010 #
b1010 &
b111010 %
#59000
14
b1110 !
b1110 +
0.
1*
1,
b1011 #
b1011 &
b111011 %
#60000
0"
1@
0=
0(
0)
1:
07
b1111 !
b1111 +
1.
0*
13
02
19
0,
0/
15
b1100 #
b1100 &
b111100 %
#61000
1"
0@
1=
1(
0:
17
1)
04
11
b0 !
b0 +
0.
1*
1,
b1101 #
b1101 &
b111101 %
#62000
01
b1 !
b1 +
1.
0*
03
12
0,
1/
b1110 #
b1110 &
b111110 %
#63000
14
b10 !
b10 +
0.
1*
1,
b1111 #
b1111 &
b111111 %
#64000
0(
1:
07
0"
04
0)
b100 !
b100 +
0@
0=
0*
02
0?
0-
00
16
0,
0/
05
0;
b100 $
b100 '
b0 #
b0 &
b1000000 %
#65000
b101 !
b101 +
1.
1,
b1 #
b1 &
b1000001 %
#66000
14
b110 !
b110 +
0.
13
0,
1/
b10 #
b10 &
b1000010 %
#67000
b111 !
b111 +
1.
1,
b11 #
b11 &
b1000011 %
#68000
1@
04
0:
1(
b1000 !
b1000 +
0.
03
09
18
0,
0/
15
b100 #
b100 &
b1000100 %
#69000
b1001 !
b1001 +
1.
1,
b101 #
b101 &
b1000101 %
#70000
14
b1010 !
b1010 +
0.
13
0,
1/
b110 #
b110 &
b1000110 %
#71000
b1011 !
b1011 +
1.
1,
b111 #
b111 &
b1000111 %
#72000
0"
04
1:
0(
1@
0=
b1100 !
b1100 +
0.
03
19
08
1?
0,
0/
05
1;
b1000 #
b1000 &
b1001000 %
#73000
b1101 !
b1101 +
1.
1,
b1001 #
b1001 &
b1001001 %
#74000
14
b1110 !
b1110 +
0.
13
0,
1/
b1010 #
b1010 &
b1001010 %
#75000
b1111 !
b1111 +
1.
1,
b1011 #
b1011 &
b1001011 %
#76000
1"
0@
1=
04
0:
1(
b0 !
b0 +
0.
03
09
18
0,
0/
15
b1100 #
b1100 &
b1001100 %
#77000
b1 !
b1 +
1.
1,
b1101 #
b1101 &
b1001101 %
#78000
14
b10 !
b10 +
0.
13
0,
1/
b1110 #
b1110 &
b1001110 %
#79000
b11 !
b11 +
1.
1,
b1111 #
b1111 &
b1001111 %
#80000
0"
04
1:
0(
b101 !
b101 +
0@
0=
03
19
08
0?
1-
0,
0/
05
0;
b101 $
b101 '
b0 #
b0 &
b1010000 %
#81000
14
b110 !
b110 +
0.
1*
1,
b1 #
b1 &
b1010001 %
#82000
b111 !
b111 +
1.
0*
13
0,
1/
b10 #
b10 &
b1010010 %
#83000
1@
1(
0:
17
1)
04
11
b1000 !
b1000 +
0.
1*
1,
b11 #
b11 &
b1010011 %
#84000
0)
01
0:
07
b1001 !
b1001 +
1.
0*
03
09
18
0,
0/
15
b100 #
b100 &
b1010100 %
#85000
14
b1010 !
b1010 +
0.
1*
1,
b101 #
b101 &
b1010101 %
#86000
b1011 !
b1011 +
1.
0*
13
0,
1/
b110 #
b110 &
b1010110 %
#87000
1:
1)
04
11
b1100 !
b1100 +
0.
1*
1,
b111 #
b111 &
b1010111 %
#88000
0)
0"
01
1:
07
0(
1@
0=
b1101 !
b1101 +
1.
0*
03
19
08
1?
0,
0/
05
1;
b1000 #
b1000 &
b1011000 %
#89000
14
b1110 !
b1110 +
0.
1*
1,
b1001 #
b1001 &
b1011001 %
#90000
b1111 !
b1111 +
1.
0*
13
0,
1/
b1010 #
b1010 &
b1011010 %
#91000
1"
0@
1=
1(
0:
17
1)
04
11
b0 !
b0 +
0.
1*
1,
b1011 #
b1011 &
b1011011 %
#92000
0)
01
0:
07
b1 !
b1 +
1.
0*
03
09
18
0,
0/
15
b1100 #
b1100 &
b1011100 %
#93000
14
b10 !
b10 +
0.
1*
1,
b1101 #
b1101 &
b1011101 %
#94000
b11 !
b11 +
1.
0*
13
0,
1/
b1110 #
b1110 &
b1011110 %
#95000
1:
1)
04
11
b100 !
b100 +
0.
1*
1,
b1111 #
b1111 &
b1011111 %
#96000
0)
0"
14
01
1:
07
0(
b110 !
b110 +
0@
0=
0*
19
08
0?
0-
10
0,
0/
05
0;
b110 $
b110 '
b0 #
b0 &
b1100000 %
#97000
b111 !
b111 +
1.
1,
b1 #
b1 &
b1100001 %
#98000
1@
1(
0:
17
04
1)
b1000 !
b1000 +
0.
03
12
0,
1/
b10 #
b10 &
b1100010 %
#99000
b1001 !
b1001 +
1.
1,
b11 #
b11 &
b1100011 %
#100000
14
0)
0:
07
b1010 !
b1010 +
0.
13
02
09
18
0,
0/
15
b100 #
b100 &
b1100100 %
#101000
b1011 !
b1011 +
1.
1,
b101 #
b101 &
b1100101 %
#102000
1:
04
1)
b1100 !
b1100 +
0.
03
12
0,
1/
b110 #
b110 &
b1100110 %
#103000
b1101 !
b1101 +
1.
1,
b111 #
b111 &
b1100111 %
#104000
0"
14
0)
1:
07
0(
1@
0=
b1110 !
b1110 +
0.
13
02
19
08
1?
0,
0/
05
1;
b1000 #
b1000 &
b1101000 %
#105000
b1111 !
b1111 +
1.
1,
b1001 #
b1001 &
b1101001 %
#106000
1"
0@
1=
1(
0:
17
04
1)
b0 !
b0 +
0.
03
12
0,
1/
b1010 #
b1010 &
b1101010 %
#107000
b1 !
b1 +
1.
1,
b1011 #
b1011 &
b1101011 %
#108000
14
0)
0:
07
b10 !
b10 +
0.
13
02
09
18
0,
0/
15
b1100 #
b1100 &
b1101100 %
#109000
b11 !
b11 +
1.
1,
b1101 #
b1101 &
b1101101 %
#110000
1:
04
1)
b100 !
b100 +
0.
03
12
0,
1/
b1110 #
b1110 &
b1101110 %
#111000
b101 !
b101 +
1.
1,
b1111 #
b1111 &
b1101111 %
#112000
0"
14
0)
1:
07
0(
b111 !
b111 +
0@
0=
13
02
19
08
0?
1-
0,
0/
05
0;
b111 $
b111 '
b0 #
b0 &
b1110000 %
#113000
1@
1(
0:
17
1)
04
11
b1000 !
b1000 +
0.
1*
1,
b1 #
b1 &
b1110001 %
#114000
01
b1001 !
b1001 +
1.
0*
03
12
0,
1/
b10 #
b10 &
b1110010 %
#115000
14
b1010 !
b1010 +
0.
1*
1,
b11 #
b11 &
b1110011 %
#116000
0)
0:
07
b1011 !
b1011 +
1.
0*
13
02
09
18
0,
0/
15
b100 #
b100 &
b1110100 %
#117000
1:
1)
04
11
b1100 !
b1100 +
0.
1*
1,
b101 #
b101 &
b1110101 %
#118000
01
b1101 !
b1101 +
1.
0*
03
12
0,
1/
b110 #
b110 &
b1110110 %
#119000
14
b1110 !
b1110 +
0.
1*
1,
b111 #
b111 &
b1110111 %
#120000
0"
0)
1:
07
0(
1@
0=
b1111 !
b1111 +
1.
0*
13
02
19
08
1?
0,
0/
05
1;
b1000 #
b1000 &
b1111000 %
#121000
1"
0@
1=
1(
0:
17
1)
04
11
b0 !
b0 +
0.
1*
1,
b1001 #
b1001 &
b1111001 %
#122000
01
b1 !
b1 +
1.
0*
03
12
0,
1/
b1010 #
b1010 &
b1111010 %
#123000
14
b10 !
b10 +
0.
1*
1,
b1011 #
b1011 &
b1111011 %
#124000
0)
0:
07
b11 !
b11 +
1.
0*
13
02
09
18
0,
0/
15
b1100 #
b1100 &
b1111100 %
#125000
1:
1)
04
11
b100 !
b100 +
0.
1*
1,
b1101 #
b1101 &
b1111101 %
#126000
01
b101 !
b101 +
1.
0*
03
12
0,
1/
b1110 #
b1110 &
b1111110 %
#127000
14
b110 !
b110 +
0.
1*
1,
b1111 #
b1111 &
b1111111 %
#128000
0"
0:
1@
0=
b1000 !
b1000 +
04
0)
0(
0*
02
08
0-
00
06
1<
0,
0/
05
0;
b1000 $
b1000 '
b0 #
b0 &
b10000000 %
#129000
b1001 !
b1001 +
1.
1,
b1 #
b1 &
b10000001 %
#130000
14
b1010 !
b1010 +
0.
13
0,
1/
b10 #
b10 &
b10000010 %
#131000
b1011 !
b1011 +
1.
1,
b11 #
b11 &
b10000011 %
#132000
04
1:
b1100 !
b1100 +
0.
03
19
0,
0/
15
b100 #
b100 &
b10000100 %
#133000
b1101 !
b1101 +
1.
1,
b101 #
b101 &
b10000101 %
#134000
14
b1110 !
b1110 +
0.
13
0,
1/
b110 #
b110 &
b10000110 %
#135000
b1111 !
b1111 +
1.
1,
b111 #
b111 &
b10000111 %
#136000
04
0:
0@
1"
b0 !
b0 +
0.
03
09
0?
1>
0,
0/
05
1;
b1000 #
b1000 &
b10001000 %
#137000
b1 !
b1 +
1.
1,
b1001 #
b1001 &
b10001001 %
#138000
14
b10 !
b10 +
0.
13
0,
1/
b1010 #
b1010 &
b10001010 %
#139000
b11 !
b11 +
1.
1,
b1011 #
b1011 &
b10001011 %
#140000
04
1:
b100 !
b100 +
0.
03
19
0,
0/
15
b1100 #
b1100 &
b10001100 %
#141000
b101 !
b101 +
1.
1,
b1101 #
b1101 &
b10001101 %
#142000
14
b110 !
b110 +
0.
13
0,
1/
b1110 #
b1110 &
b10001110 %
#143000
b111 !
b111 +
1.
1,
b1111 #
b1111 &
b10001111 %
#144000
04
0:
b1001 !
b1001 +
1@
0"
03
09
1?
0>
1-
0,
0/
05
0;
b1001 $
b1001 '
b0 #
b0 &
b10010000 %
#145000
14
b1010 !
b1010 +
0.
1*
1,
b1 #
b1 &
b10010001 %
#146000
b1011 !
b1011 +
1.
0*
13
0,
1/
b10 #
b10 &
b10010010 %
#147000
1:
1)
04
11
b1100 !
b1100 +
0.
1*
1,
b11 #
b11 &
b10010011 %
#148000
0"
1@
0=
0)
0(
01
1:
07
b1101 !
b1101 +
1.
0*
03
19
0,
0/
15
b100 #
b100 &
b10010100 %
#149000
14
b1110 !
b1110 +
0.
1*
1,
b101 #
b101 &
b10010101 %
#150000
b1111 !
b1111 +
1.
0*
13
0,
1/
b110 #
b110 &
b10010110 %
#151000
1"
0@
1=
1(
0:
17
1)
04
11
b0 !
b0 +
0.
1*
1,
b111 #
b111 &
b10010111 %
#152000
0)
0(
01
0:
07
0@
0=
b1 !
b1 +
1.
0*
03
09
0?
1>
0,
0/
05
1;
b1000 #
b1000 &
b10011000 %
#153000
14
b10 !
b10 +
0.
1*
1,
b1001 #
b1001 &
b10011001 %
#154000
b11 !
b11 +
1.
0*
13
0,
1/
b1010 #
b1010 &
b10011010 %
#155000
1:
1)
04
11
b100 !
b100 +
0.
1*
1,
b1011 #
b1011 &
b10011011 %
#156000
0@
0)
0(
01
1:
07
b101 !
b101 +
1.
0*
03
19
0,
0/
15
b1100 #
b1100 &
b10011100 %
#157000
14
b110 !
b110 +
0.
1*
1,
b1101 #
b1101 &
b10011101 %
#158000
b111 !
b111 +
1.
0*
13
0,
1/
b1110 #
b1110 &
b10011110 %
#159000
1@
1(
0:
17
1)
04
11
b1000 !
b1000 +
0.
1*
1,
b1111 #
b1111 &
b10011111 %
#160000
0)
0(
14
01
0:
07
b1010 !
b1010 +
1@
0=
0"
0*
09
1?
0>
0-
10
0,
0/
05
0;
b1010 $
b1010 '
b0 #
b0 &
b10100000 %
#161000
b1011 !
b1011 +
1.
1,
b1 #
b1 &
b10100001 %
#162000
1:
04
1)
b1100 !
b1100 +
0.
03
12
0,
1/
b10 #
b10 &
b10100010 %
#163000
b1101 !
b1101 +
1.
1,
b11 #
b11 &
b10100011 %
#164000
0"
1@
0=
0(
14
0)
1:
07
b1110 !
b1110 +
0.
13
02
19
0,
0/
15
b100 #
b100 &
b10100100 %
#165000
b1111 !
b1111 +
1.
1,
b101 #
b101 &
b10100101 %
#166000
1"
0@
1=
1(
0:
17
04
1)
b0 !
b0 +
0.
03
12
0,
1/
b110 #
b110 &
b10100110 %
#167000
b1 !
b1 +
1.
1,
b111 #
b111 &
b10100111 %
#168000
0(
14
0)
0:
07
0@
0=
b10 !
b10 +
0.
13
02
09
0?
1>
0,
0/
05
1;
b1000 #
b1000 &
b10101000 %
#169000
b11 !
b11 +
1.
1,
b1001 #
b1001 &
b10101001 %
#170000
1:
04
1)
b100 !
b100 +
0.
03
12
0,
1/
b1010 #
b1010 &
b10101010 %
#171000
b101 !
b101 +
1.
1,
b1011 #
b1011 &
b10101011 %
#172000
0@
0(
14
0)
1:
07
b110 !
b110 +
0.
13
02
19
0,
0/
15
b1100 #
b1100 &
b10101100 %
#173000
b111 !
b111 +
1.
1,
b1101 #
b1101 &
b10101101 %
#174000
1@
1(
0:
17
04
1)
b1000 !
b1000 +
0.
03
12
0,
1/
b1110 #
b1110 &
b10101110 %
#175000
b1001 !
b1001 +
1.
1,
b1111 #
b1111 &
b10101111 %
#176000
0(
14
0)
0:
07
b1011 !
b1011 +
1@
0=
0"
13
02
09
1?
0>
1-
0,
0/
05
0;
b1011 $
b1011 '
b0 #
b0 &
b10110000 %
#177000
1:
1)
04
11
b1100 !
b1100 +
0.
1*
1,
b1 #
b1 &
b10110001 %
#178000
01
b1101 !
b1101 +
1.
0*
03
12
0,
1/
b10 #
b10 &
b10110010 %
#179000
14
b1110 !
b1110 +
0.
1*
1,
b11 #
b11 &
b10110011 %
#180000
0"
1@
0=
0(
0)
1:
07
b1111 !
b1111 +
1.
0*
13
02
19
0,
0/
15
b100 #
b100 &
b10110100 %
#181000
1"
0@
1=
1(
0:
17
1)
04
11
b0 !
b0 +
0.
1*
1,
b101 #
b101 &
b10110101 %
#182000
01
b1 !
b1 +
1.
0*
03
12
0,
1/
b110 #
b110 &
b10110110 %
#183000
14
b10 !
b10 +
0.
1*
1,
b111 #
b111 &
b10110111 %
#184000
0(
0)
0:
07
0@
0=
b11 !
b11 +
1.
0*
13
02
09
0?
1>
0,
0/
05
1;
b1000 #
b1000 &
b10111000 %
#185000
1:
1)
04
11
b100 !
b100 +
0.
1*
1,
b1001 #
b1001 &
b10111001 %
#186000
01
b101 !
b101 +
1.
0*
03
12
0,
1/
b1010 #
b1010 &
b10111010 %
#187000
14
b110 !
b110 +
0.
1*
1,
b1011 #
b1011 &
b10111011 %
#188000
0@
0(
0)
1:
07
b111 !
b111 +
1.
0*
13
02
19
0,
0/
15
b1100 #
b1100 &
b10111100 %
#189000
1@
1(
0:
17
1)
04
11
b1000 !
b1000 +
0.
1*
1,
b1101 #
b1101 &
b10111101 %
#190000
01
b1001 !
b1001 +
1.
0*
03
12
0,
1/
b1110 #
b1110 &
b10111110 %
#191000
14
b1010 !
b1010 +
0.
1*
1,
b1111 #
b1111 &
b10111111 %
#192000
0(
1:
07
04
0)
b1100 !
b1100 +
1@
0=
0"
0*
02
1?
0>
0-
00
16
0,
0/
05
0;
b1100 $
b1100 '
b0 #
b0 &
b11000000 %
#193000
b1101 !
b1101 +
1.
1,
b1 #
b1 &
b11000001 %
#194000
14
b1110 !
b1110 +
0.
13
0,
1/
b10 #
b10 &
b11000010 %
#195000
b1111 !
b1111 +
1.
1,
b11 #
b11 &
b11000011 %
#196000
1"
0@
1=
04
0:
1(
b0 !
b0 +
0.
03
09
18
0,
0/
15
b100 #
b100 &
b11000100 %
#197000
b1 !
b1 +
1.
1,
b101 #
b101 &
b11000101 %
#198000
14
b10 !
b10 +
0.
13
0,
1/
b110 #
b110 &
b11000110 %
#199000
b11 !
b11 +
1.
1,
b111 #
b111 &
b11000111 %
#200000
04
1:
0(
0@
0=
b100 !
b100 +
0.
03
19
08
0?
1>
0,
0/
05
1;
b1000 #
b1000 &
b11001000 %
#201000
b101 !
b101 +
1.
1,
b1001 #
b1001 &
b11001001 %
#202000
14
b110 !
b110 +
0.
13
0,
1/
b1010 #
b1010 &
b11001010 %
#203000
b111 !
b111 +
1.
1,
b1011 #
b1011 &
b11001011 %
#204000
1@
04
0:
1(
b1000 !
b1000 +
0.
03
09
18
0,
0/
15
b1100 #
b1100 &
b11001100 %
#205000
b1001 !
b1001 +
1.
1,
b1101 #
b1101 &
b11001101 %
#206000
14
b1010 !
b1010 +
0.
13
0,
1/
b1110 #
b1110 &
b11001110 %
#207000
b1011 !
b1011 +
1.
1,
b1111 #
b1111 &
b11001111 %
#208000
04
1:
0(
b1101 !
b1101 +
1@
0=
0"
03
19
08
1?
0>
1-
0,
0/
05
0;
b1101 $
b1101 '
b0 #
b0 &
b11010000 %
#209000
14
b1110 !
b1110 +
0.
1*
1,
b1 #
b1 &
b11010001 %
#210000
b1111 !
b1111 +
1.
0*
13
0,
1/
b10 #
b10 &
b11010010 %
#211000
1"
0@
1=
1(
0:
17
1)
04
11
b0 !
b0 +
0.
1*
1,
b11 #
b11 &
b11010011 %
#212000
0)
01
0:
07
b1 !
b1 +
1.
0*
03
09
18
0,
0/
15
b100 #
b100 &
b11010100 %
#213000
14
b10 !
b10 +
0.
1*
1,
b101 #
b101 &
b11010101 %
#214000
b11 !
b11 +
1.
0*
13
0,
1/
b110 #
b110 &
b11010110 %
#215000
1:
1)
04
11
b100 !
b100 +
0.
1*
1,
b111 #
b111 &
b11010111 %
#216000
0)
01
1:
07
0(
0@
0=
b101 !
b101 +
1.
0*
03
19
08
0?
1>
0,
0/
05
1;
b1000 #
b1000 &
b11011000 %
#217000
14
b110 !
b110 +
0.
1*
1,
b1001 #
b1001 &
b11011001 %
#218000
b111 !
b111 +
1.
0*
13
0,
1/
b1010 #
b1010 &
b11011010 %
#219000
1@
1(
0:
17
1)
04
11
b1000 !
b1000 +
0.
1*
1,
b1011 #
b1011 &
b11011011 %
#220000
0)
01
0:
07
b1001 !
b1001 +
1.
0*
03
09
18
0,
0/
15
b1100 #
b1100 &
b11011100 %
#221000
14
b1010 !
b1010 +
0.
1*
1,
b1101 #
b1101 &
b11011101 %
#222000
b1011 !
b1011 +
1.
0*
13
0,
1/
b1110 #
b1110 &
b11011110 %
#223000
1:
1)
04
11
b1100 !
b1100 +
0.
1*
1,
b1111 #
b1111 &
b11011111 %
#224000
0)
14
01
1:
07
0(
b1110 !
b1110 +
1@
0=
0"
0*
19
08
1?
0>
0-
10
0,
0/
05
0;
b1110 $
b1110 '
b0 #
b0 &
b11100000 %
#225000
b1111 !
b1111 +
1.
1,
b1 #
b1 &
b11100001 %
#226000
1"
0@
1=
1(
0:
17
04
1)
b0 !
b0 +
0.
03
12
0,
1/
b10 #
b10 &
b11100010 %
#227000
b1 !
b1 +
1.
1,
b11 #
b11 &
b11100011 %
#228000
14
0)
0:
07
b10 !
b10 +
0.
13
02
09
18
0,
0/
15
b100 #
b100 &
b11100100 %
#229000
b11 !
b11 +
1.
1,
b101 #
b101 &
b11100101 %
#230000
1:
04
1)
b100 !
b100 +
0.
03
12
0,
1/
b110 #
b110 &
b11100110 %
#231000
b101 !
b101 +
1.
1,
b111 #
b111 &
b11100111 %
#232000
14
0)
1:
07
0(
0@
0=
b110 !
b110 +
0.
13
02
19
08
0?
1>
0,
0/
05
1;
b1000 #
b1000 &
b11101000 %
#233000
b111 !
b111 +
1.
1,
b1001 #
b1001 &
b11101001 %
#234000
1@
1(
0:
17
04
1)
b1000 !
b1000 +
0.
03
12
0,
1/
b1010 #
b1010 &
b11101010 %
#235000
b1001 !
b1001 +
1.
1,
b1011 #
b1011 &
b11101011 %
#236000
14
0)
0:
07
b1010 !
b1010 +
0.
13
02
09
18
0,
0/
15
b1100 #
b1100 &
b11101100 %
#237000
b1011 !
b1011 +
1.
1,
b1101 #
b1101 &
b11101101 %
#238000
1:
04
1)
b1100 !
b1100 +
0.
03
12
0,
1/
b1110 #
b1110 &
b11101110 %
#239000
b1101 !
b1101 +
1.
1,
b1111 #
b1111 &
b11101111 %
#240000
14
0)
1:
07
0(
b1111 !
b1111 +
1@
0=
0"
13
02
19
08
1?
0>
1-
0,
0/
05
0;
b1111 $
b1111 '
b0 #
b0 &
b11110000 %
#241000
1"
0@
1=
1(
0:
17
1)
04
11
b0 !
b0 +
0.
1*
1,
b1 #
b1 &
b11110001 %
#242000
01
b1 !
b1 +
1.
0*
03
12
0,
1/
b10 #
b10 &
b11110010 %
#243000
14
b10 !
b10 +
0.
1*
1,
b11 #
b11 &
b11110011 %
#244000
0)
0:
07
b11 !
b11 +
1.
0*
13
02
09
18
0,
0/
15
b100 #
b100 &
b11110100 %
#245000
1:
1)
04
11
b100 !
b100 +
0.
1*
1,
b101 #
b101 &
b11110101 %
#246000
01
b101 !
b101 +
1.
0*
03
12
0,
1/
b110 #
b110 &
b11110110 %
#247000
14
b110 !
b110 +
0.
1*
1,
b111 #
b111 &
b11110111 %
#248000
0)
1:
07
0(
0@
0=
b111 !
b111 +
1.
0*
13
02
19
08
0?
1>
0,
0/
05
1;
b1000 #
b1000 &
b11111000 %
#249000
1@
1(
0:
17
1)
04
11
b1000 !
b1000 +
0.
1*
1,
b1001 #
b1001 &
b11111001 %
#250000
01
b1001 !
b1001 +
1.
0*
03
12
0,
1/
b1010 #
b1010 &
b11111010 %
#251000
14
b1010 !
b1010 +
0.
1*
1,
b1011 #
b1011 &
b11111011 %
#252000
0)
0:
07
b1011 !
b1011 +
1.
0*
13
02
09
18
0,
0/
15
b1100 #
b1100 &
b11111100 %
#253000
1:
1)
04
11
b1100 !
b1100 +
0.
1*
1,
b1101 #
b1101 &
b11111101 %
#254000
01
b1101 !
b1101 +
1.
0*
03
12
0,
1/
b1110 #
b1110 &
b11111110 %
#255000
14
b1110 !
b1110 +
0.
1*
1,
b1111 #
b1111 &
b11111111 %
#256000
b100000000 %
